<svg xmlns="http://www.w3.org/2000/svg" width="13" height="13" viewBox="0 0 13 13">
  <path id="path-10_7_" d="M1006.333,79.555h-1.363v-.568a.576.576,0,0,0-1.148,0v.528h-4.678v-.528a.576.576,0,0,0-1.148,0v.528h-1.363a1.579,1.579,0,0,0-1.593,1.5V90a1.556,1.556,0,0,0,1.593,1.465h9.815A1.557,1.557,0,0,0,1008.04,90V80.968A1.656,1.656,0,0,0,1006.333,79.555Zm.445,10.4a.386.386,0,0,1-.4.37h-9.757a.386.386,0,0,1-.4-.37V84.148h10.561v5.807Zm-10.6-6.863V80.981a.386.386,0,0,1,.4-.37H998v.858a.576.576,0,0,0,1.148,0v-.858h4.721v.858a.576.576,0,0,0,1.148,0v-.858h1.363a.386.386,0,0,1,.4.37l.043,2.072-10.647.04Zm1.894,2.97a.554.554,0,0,1,.574-.528h.086a.53.53,0,1,1,0,1.056H998.6A.524.524,0,0,1,998.068,86.062Zm3.4.528h.129a.53.53,0,1,0,0-1.056h-.129a.554.554,0,0,0-.574.528A.544.544,0,0,0,1001.468,86.59Zm2.784,0h.086c.316,0,.617-.238.574-.528a.554.554,0,0,0-.574-.528h-.086a.554.554,0,0,0-.574.528A.536.536,0,0,0,1004.252,86.59Zm-5.653,2.6h.086a.53.53,0,1,0,0-1.056H998.6a.554.554,0,0,0-.574.528A.594.594,0,0,0,998.6,89.19Zm2.87,0h.129a.53.53,0,1,0,0-1.056h-.129a.554.554,0,0,0-.574.528A.544.544,0,0,0,1001.468,89.19Zm2.784,0h.086c.316,0,.617-.238.574-.528a.554.554,0,0,0-.574-.528h-.086a.554.554,0,0,0-.574.528A.536.536,0,0,0,1004.252,89.19Z" transform="translate(-995.04 -78.46)" fill="#b1b1b1"/>
</svg>
