<svg id="Group_5506" data-name="Group 5506" xmlns="http://www.w3.org/2000/svg" width="63.501" height="47.279" viewBox="0 0 63.501 47.279">
  <g id="Group_5494" data-name="Group 5494" transform="translate(25.263 9.097)">
    <path id="Path_10543" data-name="Path 10543" d="M1215.545,745.062a19.105,19.105,0,1,1,13.518-5.591A19.008,19.008,0,0,1,1215.545,745.062Zm0-35.607a16.53,16.53,0,1,0,11.7,4.838A16.452,16.452,0,0,0,1215.545,709.455Z" transform="translate(-1196.426 -706.881)" fill="#5c068c"/>
  </g>
  <g id="Group_5495" data-name="Group 5495" transform="translate(38.565 17.777)">
    <path id="Path_10544" data-name="Path 10544" d="M1264.256,768.162a5.832,5.832,0,0,1-5.82-5.851h2.575a3.263,3.263,0,0,0,2,3.025,3.207,3.207,0,0,0,3.524-.707,3.288,3.288,0,0,0,.7-3.574,3.231,3.231,0,0,0-2.992-2.017,5.8,5.8,0,0,1-5.373-3.613,5.856,5.856,0,0,1,1.258-6.366,5.771,5.771,0,0,1,6.342-1.27,5.831,5.831,0,0,1,3.586,5.4h-2.575a3.264,3.264,0,0,0-2-3.026,3.207,3.207,0,0,0-3.524.708,3.288,3.288,0,0,0-.7,3.573,3.231,3.231,0,0,0,2.992,2.018,5.8,5.8,0,0,1,5.372,3.613,5.856,5.856,0,0,1-1.258,6.366A5.78,5.78,0,0,1,1264.256,768.162Z" transform="translate(-1258.433 -747.339)" fill="#5c068c"/>
  </g>
  <g id="Group_5496" data-name="Group 5496" transform="translate(43.095 16.587)">
    <rect id="Rectangle_2523" data-name="Rectangle 2523" width="2.574" height="2.48" transform="translate(0 0)" fill="#5c068c"/>
  </g>
  <g id="Group_5497" data-name="Group 5497" transform="translate(43.095 37.309)">
    <rect id="Rectangle_2524" data-name="Rectangle 2524" width="2.574" height="2.48" transform="translate(0 0)" fill="#5c068c"/>
  </g>
  <g id="Group_5498" data-name="Group 5498">
    <path id="Path_10545" data-name="Path 10545" d="M1096.34,678.532a37.708,37.708,0,0,1-12.012-1.754c-4.679-1.639-5.661-3.773-5.661-5.274s.982-3.635,5.661-5.274a42.007,42.007,0,0,1,24.023,0c4.679,1.639,5.661,3.773,5.661,5.274s-.982,3.635-5.661,5.274A37.707,37.707,0,0,1,1096.34,678.532Zm0-11.481a35.618,35.618,0,0,0-11.161,1.609c-2.72.953-3.937,2.115-3.937,2.844s1.218,1.891,3.938,2.844a39.514,39.514,0,0,0,22.321,0c2.719-.953,3.937-2.115,3.937-2.844s-1.218-1.891-3.937-2.844A35.619,35.619,0,0,0,1096.34,667.051Z" transform="translate(-1078.668 -664.476)" fill="#5c068c"/>
  </g>
  <g id="Group_5499" data-name="Group 5499" transform="translate(0 7.028)">
    <path id="Path_10546" data-name="Path 10546" d="M1096.34,710.906a37.688,37.688,0,0,1-12.012-1.754c-4.678-1.639-5.661-3.773-5.66-5.274v-6.645h2.574v6.645c0,.729,1.217,1.891,3.937,2.844a35.6,35.6,0,0,0,11.161,1.609,33.092,33.092,0,0,0,12.082-1.962l1,2.374A35.684,35.684,0,0,1,1096.34,710.906Z" transform="translate(-1078.668 -697.234)" fill="#5c068c"/>
  </g>
  <g id="Group_5500" data-name="Group 5500" transform="translate(32.77 7.028)">
    <path id="Path_10547" data-name="Path 10547" d="M1233.995,703.9l-2.575,0v-6.662h2.575V703.9Z" transform="translate(-1231.42 -697.234)" fill="#5c068c"/>
  </g>
  <g id="Group_5501" data-name="Group 5501" transform="translate(0 13.672)">
    <path id="Path_10548" data-name="Path 10548" d="M1096.34,741.88a37.7,37.7,0,0,1-12.012-1.754c-4.678-1.639-5.661-3.773-5.66-5.274v-6.645h2.574v6.645c0,.729,1.217,1.891,3.937,2.844a35.615,35.615,0,0,0,11.161,1.609,39.3,39.3,0,0,0,8.87-.948l.592,2.505A41.885,41.885,0,0,1,1096.34,741.88Z" transform="translate(-1078.668 -728.207)" fill="#5c068c"/>
  </g>
  <g id="Group_5502" data-name="Group 5502" transform="translate(0 20.317)">
    <path id="Path_10549" data-name="Path 10549" d="M1096.34,772.853a37.7,37.7,0,0,1-12.012-1.754c-4.678-1.639-5.661-3.773-5.66-5.274V759.18h2.574v6.645c0,.729,1.217,1.891,3.937,2.845a35.616,35.616,0,0,0,11.161,1.609,39.175,39.175,0,0,0,8.939-.964l.6,2.5A41.762,41.762,0,0,1,1096.34,772.853Z" transform="translate(-1078.668 -759.18)" fill="#5c068c"/>
  </g>
  <g id="Group_5503" data-name="Group 5503" transform="translate(0 26.961)">
    <path id="Path_10550" data-name="Path 10550" d="M1096.34,803.824a37.712,37.712,0,0,1-12.012-1.754c-4.678-1.64-5.661-3.773-5.66-5.275v-6.644h2.574V796.8c0,.729,1.217,1.892,3.937,2.845a39.486,39.486,0,0,0,22.368-.016l.858,2.427A37.572,37.572,0,0,1,1096.34,803.824Z" transform="translate(-1078.668 -790.152)" fill="#5c068c"/>
  </g>
  <g id="Group_5504" data-name="Group 5504" transform="translate(0 33.606)">
    <path id="Path_10551" data-name="Path 10551" d="M1096.34,834.8a37.7,37.7,0,0,1-12.012-1.754c-4.678-1.639-5.661-3.773-5.66-5.274v-6.645h2.574v6.645c0,.729,1.217,1.891,3.937,2.844a35.606,35.606,0,0,0,11.161,1.609c6.636,0,12.647-1.452,14.616-3.53l1.869,1.77C1110.331,833.1,1103.86,834.8,1096.34,834.8Z" transform="translate(-1078.668 -821.125)" fill="#5c068c"/>
  </g>
</svg>
